shop\controllers\dto\CategoryDto.class
shop\controllers\AdminController.class
shop\controllers\ShopController.class
shop\controllers\ContactsController.class
shop\model\repositories\ProductsRepository.class
shop\controllers\CatalogController.class
shop\controllers\AboutController.class
shop\model\entities\Product.class
shop\Program.class
shop\model\entities\Statistics.class
shop\model\entities\Category.class
shop\controllers\StatisticsController.class
shop\model\repositories\CategoriesRepository.class
shop\model\repositories\StatisticsRepository.class
shop\controllers\CartController.class
shop\controllers\ProductController.class
shop\controllers\IndexController.class
shop\controllers\dto\ProductDto.class
